…
```bash
du -d 1 -h oisst_test.zarr/
8.0K    oisst_test.zarr/zlev
264K    oisst_test.zarr/anom
328K    oisst_test.zarr/sst
12K     oisst_test.zarr/lon
336K    oisst_test.zarr/ice
12K     oisst_test.zarr/lat
332K    oisst_test.zarr/err
68K     oisst_test.zarr/time
1.4M    oisst_test.zarr/


Rscript -e "tibble::as_tibble(arrow::read_parquet('oisst_test.zarr/sst/refs.0.parq'))"
# A tibble: 100,000 × 4
   path                                                      offset   size   raw
   <chr>                                                      <int>  <int> <arr>
 1 https://www.ncei.noaa.gov/data/sea-surface-temperature-… 1025881 683590
 2 https://www.ncei.noaa.gov/data/sea-surface-temperature-… 1031813 684863
 3 https://www.ncei.noaa.gov/data/sea-surface-temperature-… 1032012 683768
 4 https://www.ncei.noaa.gov/data/sea-surface-temperature-… 1035853 682292
 5 https://www.ncei.noaa.gov/data/sea-surface-temperature-… 1032925 681529
 6 https://www.ncei.noaa.gov/data/sea-surface-temperature-… 1029001 681074
 7 https://www.ncei.noaa.gov/data/sea-surface-temperature-… 1027366 680356
 8 https://www.ncei.noaa.gov/data/sea-surface-temperature-… 1028374 680184
 9 https://www.ncei.noaa.gov/data/sea-surface-temperature-… 1026568 679206
10 https://www.ncei.noaa.gov/data/sea-surface-temperature-… 1029553 678224
# ℹ 99,990 more rows
…
